{
  "project_info": {
    "project_number": "229436617224",
    "firebase_url": "https://latihanmixrizalpangestu.firebaseio.com",
    "project_id": "latihanmixrizalpangestu",
    "storage_bucket": "latihanmixrizalpangestu.appspot.com"
  },
  "client": [
    {
      "client_info": {
        "mobilesdk_app_id": "1:229436617224:android:099044789672b6fa",
        "android_client_info": {
          "package_name": "com.example.androidlatihanmix_rizalpangestu"
        }
      },
      "oauth_client": [
        {
          "client_id": "229436617224-p0lo7i0gc31o0jn3rqhbt23pbaa7n9m2.apps.googleusercontent.com",
          "client_type": 3
        }
      ],
      "api_key": [
        {
          "current_key": "AIzaSyAbqyCgGPEEPbz8cih7qKuVPChBZGrw6jQ"
        }
      ],
      "services": {
        "appinvite_service": {
          "other_platform_oauth_client": [
            {
              "client_id": "229436617224-p0lo7i0gc31o0jn3rqhbt23pbaa7n9m2.apps.googleusercontent.com",
              "client_type": 3
            }
          ]
        }
      }
    }
  ],
  "configuration_version": "1"
}